# DBテーブルリセット用
# テーブルだけリセットするので、DBが存在していないと実行できません
# mysql_teamb.txt を先に実行してください
# 2回目以降は mysql_teamb.txt は実行しなくていいです
# たぶん mysql_teamb.txt で作り直すより高速です

# 文字コード
set names utf8;

use pictshare;

# テスト用ユーザー
DELETE FROM users;
INSERT INTO users
	(userid, password, mail, dispname,
	iconfile, profile, islocked, ismapmode,
	initlatlng) VALUES
	
	('null', ' <null> ', ' <null> ', '非ログインユーザー',
	'def_icon.png', '非ログインユーザー', 0, 0,
	GeomFromText('POINT(139.8107 35.7100)')),
	
	('a', 'a', 'mail', 'デモ太郎',
	'a.jpg', 'デモ専用アカウントゥ', 0, 0,
	GeomFromText('POINT(134.993 34.586)')),
	
	('b', 'b', 'mail', 'スマホ用アカウント',
	'b.jpg', 'Hello', 0, 0,
	GeomFromText('POINT(134.993 34.586)')),
	
	('megane', 'a', 'ashita_kite_kurerukana@iitomo', '黒メガネ',
	'kuro.jpg', 'メガネっていいよね・・・。', 0, 0,
	GeomFromText('POINT(134.994 34.586)')),
	
	('samura', 'a', 'wananaito@sodatemasyo', '佐村コーチ',
	'samura.png', 'ビフィズスって言いにくい', 0, 1,
	GeomFromText('POINT(140.5 40.9)')),
	
	('yly', 'a', 'wai@riiiiiiiiiiiii', '猥利威',
	'def_icon.png', 'ワイは猿や プログラマー猿や ワイのワイルドワイバーンや', 1, 0,
	GeomFromText('POINT(134.999 34.588)')),
	
	('0', 'a', 'shigeki@kan.geki', 'UHA',
	'0.png', 'おいしさはやさしさズラ', 0, 1,
	GeomFromText('POINT(138.36456 38.009148)')),
	
	('cat', 'a', 'neko@masshi.gura', 'ねこ',
	'cat.jpg', 'にゃー', 0, 0,
	GeomFromText('POINT(139.48216 35.300278)'));

# テスト用フォロー
DELETE FROM follows;
INSERT INTO follows (userid, followid, followstate) VALUES
	('a',      'b',      2),
	('a',      'megane', 2),
	('a',      'yly',    1),
	('b',      'a',      2),
	('megane', 'a',      2),
	('megane', 'samura', 2),
	('megane', 'yly',    2),
	('samura', 'megane', 2);

# テスト用投稿データ
DELETE FROM posts;
ALTER TABLE posts AUTO_INCREMENT = 1;
INSERT INTO posts
	(userid, meshcode,
	latlng,
	message, postdate) VALUES
	
	('a', 64414279,
	GeomFromText('POINT(141.3707 43.059856)'),
	'北海道 #冬 #雪 #花 #名所', '2014-01-29 19:37:33'),
	
	('megane', 61401739,
	GeomFromText('POINT(140.98755 40.78054)'),
	'青森 りんご #果物 #食べ物 #名物', '2014-01-29 19:43:55'),
	
	('megane', 59414133,
	GeomFromText('POINT(141.17152 39.697502)'),
	'岩手 わんこそば', '2014-01-29 19:46:32'),
	
	('cat', 57404768,
	GeomFromText('POINT(140.97813 38.391647)'),
	'宮城 牛タン #食べ物 #肉', '2014-01-29 19:53:14'),
	
	('a', 59396695,
	GeomFromText('POINT(139.82231 39.912895)'),
	'秋田 きりたんぽ', '2014-02-20 19:55:17'),
	
	('0', 57407133,
	GeomFromText('POINT(140.1668 38.60894)'),
	'山形#果物#名物 さくらんぼだよ', '2014-02-20 20:26:33'),
	
	('a', 56400075,
	GeomFromText('POINT(140.07007 37.39771)'),
	'福島 桃 #果物', '2014-02-20 20:31:17'),
	
	('a', 54404205,
	GeomFromText('POINT(140.31454 36.33352)'),
	'茨城 栗 #食べ物', '2014-02-20 20:32:48'),
	
	('samura', 54397619,
	GeomFromText('POINT(139.86436 36.592514)'),
	'栃木 とちおとめ #果物 #赤', '2014-02-20 20:35:47'),
	
	('a', 54396045,
	GeomFromText('POINT(139.064 36.5335)'),
	'群馬 磯部せんべい #名物', '2014-03-21 20:39:38'),
	
	('cat', 53397501,
	GeomFromText('POINT(139.64273 35.920612)'),
	'埼玉 草加せんべい', '2014-03-21 20:41:03'),
	
	('a', 53391738,
	GeomFromText('POINT(139.97672 35.44347)'),
	'千葉 落花生', '2014-03-21 20:43:40'),
	
	('a', 53393544,
	GeomFromText('POINT(139.68233 35.61809)'),
	'東京 東京ばな奈 #名物', '2014-03-21 20:44:56'),
	
	('samura', 53391459,
	GeomFromText('POINT(139.61984 35.46239)'),
	'神奈川 鳩サブレー', '2014-03-21 20:46:31'),
	
	('a', 56396021,
	GeomFromText('POINT(139.01721 37.85037)'),
	'新潟 コシヒカリ', '2014-03-21 20:48:51'),
	
	('megane', 55370146,
	GeomFromText('POINT(137.20885 36.70366)'),
	'富山 ホタルイカ #名物', '2014-03-21 20:50:34'),
	
	('0', 52350114,
	GeomFromText('POINT(135.17648 34.680855)'),
	'さくらが咲いてますよ。', '2014-03-28 10:32:35'),
	
	('megane', 52350114,
	GeomFromText('POINT(135.18217 34.680214)'),
	'消火栓', '2014-04-05 11:48:28'),
	
	('a', 52350114,
	GeomFromText('POINT(135.18192 34.680298)'),
	'この先階段', '2014-04-05 11:49:32'),
	
	('cat', 52350114,
	GeomFromText('POINT(135.18181 34.680847)'),
	'とびだしだめ君', '2014-04-05 11:51:30'),
	
	('megane', 54366505,
	GeomFromText('POINT(136.69385 36.505825)'),
	'石川 あんころ #何これ？', '2014-04-17 20:51:35'),
	
	('cat', 53367129,
	GeomFromText('POINT(136.24266 35.941322)'),
	'福井 越前かにめし', '2014-04-17 20:53:01'),
	
	('0', 53382447,
	GeomFromText('POINT(138.59184 35.54033)'),
	'山梨#果物 巨峰です', '2014-04-17 20:55:28'),
	
	('a', 54381052,
	GeomFromText('POINT(138.03355 36.127407)'),
	'長野 青リンゴ #果物#名物', '2014-04-17 20:57:51'),
	
	('a', 53361632,
	GeomFromText('POINT(136.78166 35.448383)'),
	'岐阜 栗きんとん', '2014-04-17 21:00:07'),
	
	('megane', 52385246,
	GeomFromText('POINT(138.32626 35.1243)'),
	'静岡 茶', '2014-04-17 21:01:33'),
	
	('a', 52366703,
	GeomFromText('POINT(136.91388 35.1676)'),
	'愛知 名古屋コーチン', '2014-04-17 21:02:54'),
	
	('a', 51365278,
	GeomFromText('POINT(136.35973 34.479393)'),
	'三重 赤福', '2014-04-17 21:03:49'),
	
	('samura', 52366069,
	GeomFromText('POINT(136.11983 35.219257)'),
	'滋賀 丁稚ようかん', '2014-05-19 21:04:59'),
	
	('a', 52356394,
	GeomFromText('POINT(135.4252 35.249825)'),
	'京都 八つ橋 #名物', '2014-05-19 21:06:15'),
	
	('cat', 51357394,
	GeomFromText('POINT(135.43477 34.66456)'),
	'大阪 たこ焼き', '2014-05-19 21:08:11'),
	
	('b', 52350135,
	GeomFromText('POINT(135.19588 34.69296)'),
	'兵庫 神戸プリン #名物#お菓子#デザート#おみやげ プリンだよ', '2014-05-19 21:15:36'),
	
	('cat', 51353689,
	GeomFromText('POINT(135.86772 34.318382)'),
	'奈良 奈良漬', '2014-05-19 21:19:51'),
	
	('0', 50356490,
	GeomFromText('POINT(135.50241 33.914787)'),
	'和歌山 柿 #果物', '2014-05-19 21:22:18'),
	
	('a', 53341198,
	GeomFromText('POINT(134.23108 35.49366)'),
	'鳥取 二十世紀梨 #食べ物 #果物', '2014-05-19 21:23:51'),
	
	('megane', 52324476,
	GeomFromText('POINT(132.5854 35.066536)'),
	'島根 源氏巻', '2014-05-19 21:25:40'),
	
	('a', 52341081,
	GeomFromText('POINT(134.01604 34.82395)'),
	'岡山 きびだんご', '2014-06-18 21:27:19'),
	
	('a', 51324366,
	GeomFromText('POINT(132.45947 34.391186)'),
	'広島 お好み焼き #食べ物', '2014-06-18 21:29:11'),
	
	('samura', 50307734,
	GeomFromText('POINT(130.92601 33.944)'),
	'山口 とらふぐ #食べ物', '2014-06-18 21:30:42'),
	
	('a', 50346251,
	GeomFromText('POINT(134.27026 33.879253)'),
	'徳島 すだち', '2014-06-18 21:31:53'),
	
	('cat', 51342050,
	GeomFromText('POINT(134.00008 34.20896)'),
	'香川 讃岐うどん #名物', '2014-06-18 21:33:02'),
	
	('a', 50324626,
	GeomFromText('POINT(132.83105 33.689495)'),
	'愛媛 みかん #果物', '2014-06-18 21:33:58'),
	
	('0', 50331254,
	GeomFromText('POINT(133.3021 33.458656)'),
	'高知 土佐日記', '2014-06-18 21:35:26'),
	
	('a', 50306752,
	GeomFromText('POINT(130.907 33.87868)'),
	'福岡 辛子明太子 #赤#食べ物', '2014-06-18 21:36:25'),
	
	('a', 49307038,
	GeomFromText('POINT(130.10516 33.27644)'),
	'佐賀 小城羊羹', '2014-07-18 21:37:44'),
	
	('samura', 52350116,
	GeomFromText('POINT(135.20352 34.677036)'),
	'俺の生涯賃金より、花火大会一回にかかる費用の方が高いらしい #イベント', '2014-08-02 19:41:44'),
	
	('b', 52350114,
	GeomFromText('POINT(135.1842 34.679443)'),
	'謎のライブなう', '2014-08-03 18:04:40'),
	
	('cat', 49291633,
	GeomFromText('POINT(129.79333 32.77573)'),
	'長崎 カステラ #お菓子', '2014-08-11 21:38:58'),
	
	('a', 48307572,
	GeomFromText('POINT(130.65067 32.648697)'),
	'熊本 デコポン', '2014-08-11 21:41:11'),
	
	('b', 52350268,
	GeomFromText('POINT(135.3612 34.72187)'),
	'もうちょっと右だったらストライク', '2014-08-25 13:50:08'),
	
	('0', 52350015,
	GeomFromText('POINT(135.07317 34.68159)'),
	'やきゅうを やってるです。', '2014-08-28 18:20:43'),
	
	('a', 49314533,
	GeomFromText('POINT(131.67252 33.02939)'),
	'大分 かぼす', '2014-09-11 21:41:56'),
	
	('samura', 48312266,
	GeomFromText('POINT(131.33057 32.21745)'),
	'宮崎 芋焼酎', '2014-09-11 21:43:22'),
	
	('megane', 52350400,
	GeomFromText('POINT(135.50008 34.672314)'),
	'この行列をケンドールの記号で表すと、「Ｍ／Ｍ／早く開けろ」やな #行列', '2014-09-19 07:58:24'),
	
	('0', 46305652,
	GeomFromText('POINT(130.784 31.13055)'),
	'鹿児島 黒豚 #減塩#食べ物', '2014-10-10 21:44:58'),
	
	('a', 39272555,
	GeomFromText('POINT(127.68772 26.211376)'),
	'沖縄 シークヮーサー', '2014-11-30 21:46:19'),
	
	('yly', 51357010,
	GeomFromText('POINT(135.01065 34.593933)'),
	'淡路島のここらへん', '2014-12-01 21:50:49'),
	
	('cat', 52350135,
	GeomFromText('POINT(135.19568 34.692947)'),
	'にゃー', '2014-12-03 21:55:23'),
	
	('megane', 52350125,
	GeomFromText('POINT(135.19688 34.687893)'),
	'かがくのちからってすげー #ルミナリエ #イベント', '2014-12-04 20:21:38'),
	
	('b', 52350125,
	GeomFromText('POINT(135.19653 34.68739)'),
	'#ルミナリエ #イベント', '2014-12-04 20:22:16'),
	
	('samura', 52350125,
	GeomFromText('POINT(135.19731 34.68735)'),
	'#ルミナリエ #イベント うおっまぶしっ', '2014-12-04 20:25:13'),
	
	('0', 51323255,
	GeomFromText('POINT(132.3195 34.296135)'),
	'厳島神社', '2014-12-17 09:40:03'),
	
	('b', 51357010,
	GeomFromText('POINT(135.00961 34.597607)'),
	'明石海峡大橋', '2014-12-17 11:44:26'),
	
	('megane', 52350114,
	GeomFromText('POINT(135.18675 34.682632)'),
	'ポートタワー #赤', '2014-12-20 22:00:53'),
	
	('samura', 52350114,
	GeomFromText('POINT(135.1868 34.67676)'),
	'今からこの船で世界一周します', '2014-12-24 21:25:56'),
	
	('samura', 52350115,
	GeomFromText('POINT(135.18896 34.67594)'),
	'世界一周してきました。久しぶりに見る神戸はきれいですね', '2014-12-24 21:28:53'),
	
	('0', 52350135,
	GeomFromText('POINT(135.192 34.698284)'),
	'郵便局', '2015-01-29 22:05:47'),
	
	('a', 45304746,
	GeomFromText('POINT(130.95776 30.374792)'),
	'種子島でのロケット打ち上げの様子', '2015-01-29 22:13:37'),
	
	('samura', 52350135,
	GeomFromText('POINT(135.19711 34.69851)'),
	'西南西を向かずに食べてやったぜぇ～', '2015-02-03 12:05:11'),
	
	('megane', 61400616,
	GeomFromText('POINT(140.83565 40.67849)'),
	'#雪 冬だね', '2015-02-09 13:15:12'),
	
	('cat', 53390315,
	GeomFromText('POINT(139.44054 35.349857)'),
	'にゃー #雪 #食べ物', '2015-02-09 18:35:30'),
	
	('a', 52351119,
	GeomFromText('POINT(135.24487 34.763332)'),
	'寒なってきた #雪', '2015-02-10 10:31:36'),
	
	('megane', 52350114,
	GeomFromText('POINT(135.18317 34.680645)'),
	'ここどこ', '2015-02-11 07:01:44'),
	
	('a', 52350114,
	GeomFromText('POINT(135.18094 34.680233)'),
	'ここでよく遊んだ', '2015-02-11 16:08:55'),
	
	('cat', 52350114,
	GeomFromText('POINT(135.18268 34.67795)'),
	'このはしわたるべからず', '2015-02-11 20:50:21'),
	
	('0', 52350114,
	GeomFromText('POINT(135.18274 34.679928)'),
	'きれいな明かりしてるだろ？', '2015-02-11 21:34:28'),
	
	('samura', 52350114,
	GeomFromText('POINT(135.18208 34.67992)'),
	'そこの角を右や', '2015-02-11 21:51:57'),
	
	('samura', 52350114,
	GeomFromText('POINT(135.18224 34.68015)'),
	'私が色鉛筆で書きました。', '2015-02-11 23:20:56'),
	
	('b', 52350114,
	GeomFromText('POINT(135.18077 34.680573)'),
	'青色発光しとる', '2015-02-11 23:52:25'),
	
	('0', 52350114,
	GeomFromText('POINT(135.18234 34.679295)'),
	'俺の家のベランダから見える光景', '2015-02-12 08:11:20'),
	
	('cat', 52350114,
	GeomFromText('POINT(135.18127 34.678154)'),
	'あの有名なアレや', '2015-02-12 08:18:29'),
	
	('megane', 52350114,
	GeomFromText('POINT(135.18358 34.680546)'),
	'ここどこ？', '2015-02-12 08:33:20'),
	
	('a', 52350114,
	GeomFromText('POINT(135.18355 34.67939)'),
	'モザイク', '2015-02-12 09:22:50'),
	
	('samura', 52350114,
	GeomFromText('POINT(135.18227 34.68051)'),
	'今日デジタルワークスあるみたいだけど行ってみようかな #イベント', '2015-02-12 09:38:21'),
	
	('0', 52350114,
	GeomFromText('POINT(135.18224 34.680256)'),
	'晴れとる', '2015-02-12 10:34:08');

# テスト用評価データ
DELETE FROM goodbad;
INSERT INTO goodbad (postid, userid, good) VALUES
	(1,  'samura', 1),
	(1,  'megane', 1),
	(2,  '0',      1),
	(2,  'a',      1),
	(2,  'samura', 1),
	(3,  'a',      2),
	(3,  'samura', 1),
	(3,  'cat',    1),
	(4,  '0',      1),
	(4,  'a',      1),
	(5,  'samura', 1),
	(5,  'megane', 1),
	(6,  'samura', 1),
	(6,  'megane', 1),
	(7,  'cat',    1),
	(7,  'megane', 1),
	(8,  '0',      1),
	(8,  'samura', 1),
	(8,  'cat',    1),
	(8,  'megane', 1),
	(9,  'cat',    1),
	(10, 'samura', 2),
	(10, 'cat',    1),
	(11, 'samura', 1),
	(12, 'samura', 2),
	(12, 'megane', 1),
	(13, '0',      1),
	(13, 'samura', 1),
	(13, 'megane', 2),
	(14, 'a',      1),
	(14, 'megane', 1),
	(15, '0',      1),
	(15, 'megane', 1),
	(16, 'a',      1),
	(21, 'a',      1),
	(22, 'a',      1),
	(22, 'megane', 1),
	(23, 'a',      1),
	(24, 'megane', 1),
	(25, 'megane', 1),
	(26, 'a',      1),
	(26, 'cat',    1),
	(27, 'cat',    1),
	(28, 'cat',    1),
	(29, 'a',      1),
	(30, 'cat',    1),
	(31, 'a',      1),
	(32, 'samura', 1),
	(32, 'cat',    2),
	(32, 'megane', 1),
	(33, 'a',      1),
	(34, 'a',      1),
	(34, 'samura', 1),
	(35, 'samura', 1),
	(35, 'megane', 1),
	(36, 'a',      1),
	(36, 'samura', 1),
	(37, '0',      1),
	(37, 'samura', 1),
	(38, '0',      1),
	(38, 'samura', 1),
	(39, '0',      1),
	(40, '0',      1),
	(41, '0',      1),
	(42, '0',      1),
	(43, 'samura', 1),
	(43, 'cat',    1),
	(44, 'cat',    1),
	(45, 'a',      1),
	(45, 'samura', 1),
	(45, 'cat',    1),
	(47, 'a',      1),
	(48, 'samura', 1),
	(49, 'a',      2),
	(49, 'samura', 1),
	(49, 'cat',    1),
	(52, 'samura', 1),
	(52, 'a',      2),
	(52, 'cat',    1),
	(52, 'yly',    2),
	(53, 'cat',    1),
	(54, 'a',      1),
	(55, 'cat',    1),
	(56, 'a',      2),
	(56, 'cat',    1),
	(56, 'yly',    2),
	(58, 'samura', 1),
	(59, 'a',      1),
	(64, 'a',      1),
	(64, 'samura', 2),
	(67, 'a',      1),
	(67, 'samura', 2),
	(68, 'a',      1),
	(68, 'samura', 1),
	(68, 'cat',    1),
	(68, 'megane', 1),
	(68, 'yly',    2),
	(69, 'a',      1),
	(69, 'b',      1),
	(69, 'megane', 1),
	(69, 'samura', 1),
	(69, 'yly',    1),
	(69, '0',      1),
	(69, 'cat',    1),
	(84, 'cat',    1);

# テスト用写真データ
DELETE FROM pictures;
ALTER TABLE pictures AUTO_INCREMENT = 1;
INSERT INTO pictures (postid, imgfile) VALUES
	(1,  '0000101.jpg'),
	(1,  '0000102.jpg'),
	(1,  '0000103.jpg'),
	(1,  '0000104.JPG'),
	(2,  '0000201.jpg'),
	(3,  '0000301.jpg'),
	(4,  '0000401.jpg'),
	(5,  '0000501.jpg'),
	(6,  '0000601.jpg'),
	(7,  '0000701.jpg'),
	(8,  '0000801.jpg'),
	(9,  '0000901.jpg'),
	(10, '0001001.jpg'),
	(11, '0001101.jpg'),
	(12, '0001201.jpg'),
	(13, '0001301.jpg'),
	(14, '0001401.jpg'),
	(15, '0001501.jpg'),
	(16, '0001601.jpg'),
	(17, '0005301.jpg'),
	(18, '0006601.jpg'),
	(19, '0006701.jpg'),
	(20, '0006801.jpg'),
	(21, '0001701.jpg'),
	(22, '0001801.jpg'),
	(23, '0001901.jpg'),
	(24, '0002001.jpg'),
	(25, '0002101.jpg'),
	(26, '0002201.jpg'),
	(27, '0002301.jpg'),
	(28, '0002401.jpg'),
	(29, '0002501.jpg'),
	(30, '0002601.jpg'),
	(31, '0002701.jpg'),
	(32, '0002801.jpg'),
	(32, '0002802.jpg'),
	(32, '0002803.jpg'),
	(32, '0002804.jpg'),
	(32, '0002805.jpg'),
	(33, '0002901.jpg'),
	(34, '0003001.jpg'),
	(35, '0003101.jpg'),
	(36, '0003201.jpg'),
	(37, '0003301.jpg'),
	(38, '0003401.jpg'),
	(39, '0003501.jpg'),
	(40, '0003601.jpg'),
	(41, '0003701.jpg'),
	(42, '0003801.jpg'),
	(43, '0003901.jpg'),
	(44, '0004001.jpg'),
	(45, '0004101.jpg'),
	(46, '0005401.jpg'),
	(47, '0005501.jpg'),
	(48, '0004201.jpg'),
	(49, '0004301.jpg'),
	(50, '0005601.jpg'),
	(51, '0005701.jpg'),
	(52, '0004401.jpg'),
	(53, '0004501.jpg'),
	(54, '0005801.jpg'),
	(55, '0004601.jpg'),
	(56, '0004701.jpg'),
	(57, '0004801.jpg'),
	(57, '0004802.jpg'),
	(58, '0004901.jpg'),
	(59, '0005901.jpg'),
	(60, '0006001.jpg'),
	(61, '0006101.jpg'),
	(62, '0006401.jpg'),
	(62, '0006402.jpg'),
	(62, '0006403.jpg'),
	(63, '0006501.jpg'),
	(64, '0005001.jpg'),
	(64, '0005002.jpg'),
	(64, '0005003.jpg'),
	(65, '0006201.jpg'),
	(66, '0006301.jpg'),
	(67, '0005101.jpg'),
	(67, '0005102.jpg'),
	(68, '0005201.jpg'),
	(68, '0005202.jpg'),
	(68, '0005203.jpg'),
	(69, '0008101.jpg'),
	(70, '0008201.jpg'),
	(71, '0008301.jpg'),
	(72, '0008401.jpg'),
	(73, '0007301.jpg'),
	(74, '0007701.jpg'),
	(75, '0007501.jpg'),
	(76, '0007001.jpg'),
	(77, '0008001.jpg'),
	(78, '0007901.jpg'),
	(79, '0007201.jpg'),
	(80, '0007101.jpg'),
	(81, '0007601.jpg'),
	(82, '0007401.jpg'),
	(83, '0007801.jpg'),
	(84, '0008501.jpg'),
	(85, '0006901.jpg');

# 今月ランキング
DELETE FROM thisranking;
INSERT INTO thisranking (postid, good) VALUES
	(1,  2),
	(2,  3),
	(3,  2),
	(4,  3),
	(5,  2),
	(6,  2),
	(7,  2),
	(8,  4),
	(9,  1),
	(10, 1),
	(11, 1),
	(12, 1),
	(13, 2),
	(14, 2),
	(15, 2),
	(16, 1),
	(21, 1),
	(22, 2),
	(23, 1),
	(24, 1),
	(25, 1),
	(26, 2),
	(27, 1),
	(28, 1),
	(29, 1),
	(30, 1),
	(31, 1),
	(32, 2),
	(33, 1),
	(34, 2),
	(35, 2),
	(36, 2),
	(37, 2),
	(38, 2),
	(39, 1),
	(40, 1),
	(41, 1),
	(42, 1),
	(43, 2),
	(44, 1),
	(45, 2),
	(48, 1),
	(49, 2),
	(52, 2),
	(53, 1),
	(55, 1),
	(56, 1),
	(58, 1),
	(64, 1),
	(67, 1),
	(68, 3),
	(69, 7),
	(84, 1);

# 過去ランキング
DELETE FROM pastranking;
INSERT INTO pastranking (rankingyear, rankingmonth, rank, postid, good) VALUES
	(2014, 1,  1,   1,  5),
	(2014, 1,  2,   2,  3),
	(2014, 1,  3,   3,  2),
	(2014, 3,  1,   44, 1),
	(2014, 3,  2,   49, 1),
	(2014, 4,  1,   1,  51),
	(2014, 4,  2,   2,  51),
	(2014, 4,  3,   3,  50),
	(2014, 4,  4,   4,  48),
	(2014, 4,  5,   5,  45),
	(2014, 4,  6,   6,  44),
	(2014, 4,  7,   7,  43),
	(2014, 4,  8,   8,  42),
	(2014, 4,  9,   9,  41),
	(2014, 4,  10,  10, 40),
	(2014, 4,  11,  11, 39),
	(2014, 4,  12,  12, 39),
	(2014, 4,  13,  13, 39),
	(2014, 4,  14,  14, 39),
	(2014, 4,  15,  15, 39),
	(2014, 4,  16,  16, 34),
	(2014, 4,  17,  21, 33),
	(2014, 4,  18,  22, 32),
	(2014, 4,  19,  23, 31),
	(2014, 4,  20,  24, 30),
	(2014, 4,  21,  25, 29),
	(2014, 4,  22,  26, 28),
	(2014, 4,  23,  27, 27),
	(2014, 4,  24,  28, 26),
	(2014, 4,  25,  29, 25),
	(2014, 4,  26,  30, 24),
	(2014, 4,  27,  31, 23),
	(2014, 4,  28,  32, 22),
	(2014, 4,  29,  33, 21),
	(2014, 4,  30,  34, 20),
	(2014, 4,  31,  35, 19),
	(2014, 4,  32,  36, 18),
	(2014, 4,  33,  37, 17),
	(2014, 4,  34,  38, 16),
	(2014, 4,  35,  39, 15),
	(2014, 4,  36,  40, 14),
	(2014, 4,  37,  41, 13),
	(2014, 4,  38,  42, 12),
	(2014, 4,  39,  43, 11),
	(2014, 4,  40,  44, 10),
	(2014, 4,  41,  45, 9),
	(2014, 4,  42,  48, 8),
	(2014, 4,  43,  49, 7),
	(2014, 4,  44,  52, 6),
	(2014, 4,  45,  53, 5),
	(2014, 4,  46,  55, 4),
	(2014, 4,  47,  56, 3),
	(2014, 4,  48,  57, 3),
	(2014, 4,  49,  58, 2),
	(2014, 4,  50,  64, 1),
	(2014, 5,  1,   12, 45),
	(2014, 5,  2,   13, 40),
	(2014, 5,  3,   14, 35),
	(2014, 6,  1,   14, 14),
	(2014, 6,  2,   15, 8),
	(2014, 6,  3,   16, 2),
	(2014, 7,  1,   16, 3),
	(2014, 7,  2,   21, 2),
	(2014, 7,  3,   22, 1),
	(2014, 8,  1,   22, 9),
	(2014, 8,  2,   23, 8),
	(2014, 8,  3,   24, 7),
	(2014, 9,  1,   24, 8),
	(2014, 9,  2,   25, 2),
	(2014, 9,  3,   26, 2),
	(2014, 10, 1,   26, 10),
	(2014, 10, 2,   27, 10),
	(2014, 10, 3,   28, 5),
	(2014, 11, 1,   28, 9),
	(2014, 11, 2,   29, 8),
	(2014, 11, 3,   30, 6),
	(2014, 12, 1,   5,  3),
	(2014, 12, 2,   1,  3),
	(2014, 12, 3,   3,  1),
	(2015, 1,  1,   38, 4),
	(2015, 1,  2,   58, 3),
	(2015, 1,  3,   32, 2);

# テスト用タグ
DELETE FROM tags;
ALTER TABLE tags AUTO_INCREMENT = 1;
INSERT INTO tags (tag) VALUES
	('冬'),
	('雪'),
	('花'),
	('名所'),
	('果物'),
	('食べ物'),
	('名物'),
	('肉'),
	('赤'),
	('何これ？'),
	('お菓子'),
	('デザート'),
	('おみやげ'),
	('減塩'),
	('行列'),
	('ルミナリエ'),
	('イベント');

# テストタグ管理用データ
DELETE FROM tagpost;
INSERT INTO tagpost (postid, tagid) VALUES
	(1,  1),
	(1,  2),
	(1,  3),
	(1,  4),
	(2,  5),
	(2,  6),
	(2,  7),
	(4,  6),
	(4,  8),
	(6,  5),
	(6,  7),
	(7,  5),
	(8,  6),
	(9,  5),
	(9,  9),
	(10, 7),
	(13, 7),
	(16, 7),
	(21, 10),
	(23, 5),
	(24, 5),
	(24, 7),
	(30, 7),
	(32, 7),
	(32, 11),
	(32, 12),
	(32, 13),
	(34, 5),
	(35, 5),
	(35, 6),
	(38, 6),
	(39, 6),
	(41, 7),
	(42, 5),
	(44, 6),
	(44, 9),
	(46, 17),
	(48, 11),
	(54, 15),
	(55, 6),
	(55, 14),
	(59, 16),
	(59, 17),
	(60, 16),
	(60, 17),
	(61, 16),
	(61, 17),
	(64, 9),
	(70, 2),
	(71, 2),
	(71, 6),
	(72, 2),
	(84, 17);

# テストおすすめタグ
DELETE FROM recommendedtags;
INSERT INTO recommendedtags
	(tagid, count0, count1, count2, count3,
	count4, count5, count6, countsum) VALUES
	
	(1,  0, 0, 0, 0, 0, 1, 0, 1),
	(2,  0, 0, 0, 0, 0, 4, 0, 4),
	(3,  0, 0, 0, 0, 0, 1, 0, 1),
	(4,  0, 0, 0, 0, 0, 1, 0, 1),
	(5,  0, 0, 0, 0, 0, 1, 0, 1),
	(6,  0, 0, 0, 0, 0, 2, 0, 2),
	(7,  0, 0, 0, 0, 0, 1, 0, 1),
	(8,  0, 0, 0, 0, 0, 1, 0, 1),
	(9,  0, 0, 0, 0, 0, 1, 0, 1),
	(10, 0, 0, 0, 0, 0, 1, 0, 1),
	(11, 0, 0, 0, 0, 0, 1, 0, 1),
	(12, 0, 0, 0, 0, 0, 1, 0, 1),
	(13, 0, 0, 0, 0, 0, 1, 0, 1),
	(14, 0, 0, 0, 0, 0, 1, 0, 1),
	(15, 0, 0, 0, 0, 0, 1, 0, 1),
	(16, 0, 0, 0, 0, 0, 1, 0, 1),
	(17, 0, 0, 0, 0, 0, 3, 0, 3);

# テスト用コメントデータ
DELETE FROM comments;
ALTER TABLE comments AUTO_INCREMENT = 1;
INSERT INTO comments (postid, userid, comment) VALUES
	(1,  'megane', 'きれいな写真ですね'),
	(1,  'a',      'ありがとうございます'),
	(1,  'cat',    'にゃー'),
	(1,  'samura', 'ピラミッドあんの？'),
	(2,  'a',      'そう、りんごならね。'),
	(4,  'a',      'それマジで牛たん？ソースあんならすぐ出せ'),
	(9,  'cat',    'にゃー'),
	(13, 'samura', 'そんな・・・'),
	(32, 'megane', '焼きプリンなんですか？'),
	(32, 'samura', '買ってきてくれ'),
	(43, 'cat',    '男もすなる日記'),
	(58, 'samura', 'うるせぇ'),
	(67, 'a',      '便利'),
	(68, 'samura', 'HBロケット'),
	(67, 'samura', '遠い'),
	(68, 'megane', '成功したんや'),
	(64, 'samura', 'いえーい'),
	(84, 'cat',    'にゃー');

SELECT 'tomcat sai kidou shita houga ii kamone' AS pictshare;
